{
  "homepage": "https://www.curseforge.com/minecraft/mc-mods/cobblegenrandomizer",
  "promos": {
    "1.16.4-latest": "1.16-5.1.2",
    "1.16.4-recommended": "1.16-5.1.2",
    "1.17.1-latest": "1.17-1.0",
    "1.17.1-recommended": "1.17-1.0",
    "1.18.1-latest": "1.18-1.1",
    "1.18.1-recommended": "1.18-1.1"

  }
}